{
  "photos": {
    "page": 1,
    "pages": 1095,
    "perpage": 100,
    "total": "109432",
    "photo": [
      {
        "id": "50140394491",
        "owner": "40744368@N04",
        "secret": "42c53826ea",
        "server": "65535",
        "farm": 66,
        "title": "DSC_9201",
        "ispublic": 1,
        "isfriend": 0,
        "isfamily": 0
      },
      {
        "id": "50139851653",
        "owner": "40744368@N04",
        "secret": "4679bbe9c9",
        "server": "65535",
        "farm": 66,
        "title": "DSC_9207",
        "ispublic": 1,
        "isfriend": 0,
        "isfamily": 0
      },
      {
        "id": "50139840873",
        "owner": "60388382@N08",
        "secret": "515beb211d",
        "server": "65535",
        "farm": 66,
        "title": "Wheat crop with stormy skies",
        "ispublic": 1,
        "isfriend": 0,
        "isfamily": 0
      },
      {
        "id": "50139839888",
        "owner": "40744368@N04",
        "secret": "dbcf85a86f",
        "server": "65535",
        "farm": 66,
        "title": "DSC_9232",
        "ispublic": 1,
        "isfriend": 0,
        "isfamily": 0
      },
      {
        "id": "50139839908",
        "owner": "40744368@N04",
        "secret": "5f6effc287",
        "server": "65535",
        "farm": 66,
        "title": "DSC_9208",
        "ispublic": 1,
        "isfriend": 0,
        "isfamily": 0
      },
      {
        "id": "50140618697",
        "owner": "40744368@N04",
        "secret": "6f12a54d22",
        "server": "65535",
        "farm": 66,
        "title": "DSC_9234",
        "ispublic": 1,
        "isfriend": 0,
        "isfamily": 0
      },
      {
        "id": "50139827183",
        "owner": "28063678@N02",
        "secret": "fc65cc3333",
        "server": "65535",
        "farm": 66,
        "title": "The Opera House, Wellington, NZ",
        "ispublic": 1,
        "isfriend": 0,
        "isfamily": 0
      },
      {
        "id": "17097035123",
        "owner": "22638088@N04",
        "secret": "9acfffd9df",
        "server": "65535",
        "farm": 66,
        "title": "Italy - Liguria Coast - Riviera Ligure - Cinque Terre - Manarola at Dusk - Twilight - Blue Hour - Night",
        "ispublic": 1,
        "isfriend": 0,
        "isfamily": 0
      },
      {
        "id": "50139839698",
        "owner": "67503751@N06",
        "secret": "7e40b305b6",
        "server": "65535",
        "farm": 66,
        "title": "2020-07-22_05-49-46",
        "ispublic": 1,
        "isfriend": 0,
        "isfamily": 0
      },
      {
        "id": "50140611617",
        "owner": "67503751@N06",
        "secret": "93bf092db9",
        "server": "65535",
        "farm": 66,
        "title": "22 7 85",
        "ispublic": 1,
        "isfriend": 0,
        "isfamily": 0
      },
      {
        "id": "50139825568",
        "owner": "125160113@N04",
        "secret": "a7d71e73b4",
        "server": "65535",
        "farm": 66,
        "title": "Another Brunel Masterpiece",
        "ispublic": 1,
        "isfriend": 0,
        "isfamily": 0
      },
      {
        "id": "50139791798",
        "owner": "79986881@N00",
        "secret": "d967141382",
        "server": "65535",
        "farm": 66,
        "title": "UK - London - Tate Britain - Spiral fisheye 01 v2_DSC4913",
        "ispublic": 1,
        "isfriend": 0,
        "isfamily": 0
      },
      {
        "id": "50140589107",
        "owner": "32934244@N04",
        "secret": "3329407740",
        "server": "65535",
        "farm": 66,
        "title": "Brigg line Barn owl",
        "ispublic": 1,
        "isfriend": 0,
        "isfamily": 0
      },
      {
        "id": "50140587237",
        "owner": "81483290@N05",
        "secret": "35be36018d",
        "server": "65535",
        "farm": 66,
        "title": "Lisbon, Portugal. 2012",
        "ispublic": 1,
        "isfriend": 0,
        "isfamily": 0
      },
      {
        "id": "50139804553",
        "owner": "185505796@N04",
        "secret": "73b687380e",
        "server": "65535",
        "farm": 66,
        "title": "Mitsubishi Galant $6995",
        "ispublic": 1,
        "isfriend": 0,
        "isfamily": 0
      },
      {
        "id": "50140576992",
        "owner": "126193119@N08",
        "secret": "789c1373e7",
        "server": "65535",
        "farm": 66,
        "title": "Thoughts of Midnite",
        "ispublic": 1,
        "isfriend": 0,
        "isfamily": 0
      },
      {
        "id": "50139798243",
        "owner": "126193119@N08",
        "secret": "41e99f68ac",
        "server": "65535",
        "farm": 66,
        "title": "Thoughts of Midnite",
        "ispublic": 1,
        "isfriend": 0,
        "isfamily": 0
      },
      {
        "id": "50140337926",
        "owner": "186583371@N08",
        "secret": "6b530ecf74",
        "server": "65535",
        "farm": 66,
        "title": "Audi Q7 $15497",
        "ispublic": 1,
        "isfriend": 0,
        "isfamily": 0
      },
      {
        "id": "50139794858",
        "owner": "138061457@N04",
        "secret": "b28d07811c",
        "server": "65535",
        "farm": 66,
        "title": "Audi A7 Prestige Supercharged $19999",
        "ispublic": 1,
        "isfriend": 0,
        "isfamily": 0
      },
      {
        "id": "50140333176",
        "owner": "82032880@N00",
        "secret": "89db173150",
        "server": "65535",
        "farm": 66,
        "title": "Antikythera machine",
        "ispublic": 1,
        "isfriend": 0,
        "isfamily": 0
      },
      {
        "id": "50139789993",
        "owner": "82032880@N00",
        "secret": "853841bb58",
        "server": "65535",
        "farm": 66,
        "title": "Antikythera Youth, hand",
        "ispublic": 1,
        "isfriend": 0,
        "isfamily": 0
      },
      {
        "id": "50139789288",
        "owner": "82032880@N00",
        "secret": "fb055f21db",
        "server": "65535",
        "farm": 66,
        "title": "Antikythera Youth, feet",
        "ispublic": 1,
        "isfriend": 0,
        "isfamily": 0
      },
      {
        "id": "50139788648",
        "owner": "82032880@N00",
        "secret": "bf97e20188",
        "server": "65535",
        "farm": 66,
        "title": "Antikythera Youth photos before restoration",
        "ispublic": 1,
        "isfriend": 0,
        "isfamily": 0
      },
      {
        "id": "50140566192",
        "owner": "82032880@N00",
        "secret": "8c61d7c6e6",
        "server": "65535",
        "farm": 66,
        "title": "Antikythera Youth, head",
        "ispublic": 1,
        "isfriend": 0,
        "isfamily": 0
      },
      {
        "id": "50139787313",
        "owner": "82032880@N00",
        "secret": "8b4585ffe3",
        "server": "65535",
        "farm": 66,
        "title": "Antikythera Youth",
        "ispublic": 1,
        "isfriend": 0,
        "isfamily": 0
      },
      {
        "id": "50140329936",
        "owner": "82032880@N00",
        "secret": "b9b433d84a",
        "server": "65535",
        "farm": 66,
        "title": "Antikythera Youth",
        "ispublic": 1,
        "isfriend": 0,
        "isfamily": 0
      },
      {
        "id": "50140316936",
        "owner": "189401676@N02",
        "secret": "5d82415678",
        "server": "65535",
        "farm": 66,
        "title": "flare6 (6)",
        "ispublic": 1,
        "isfriend": 0,
        "isfamily": 0
      },
      {
        "id": "50140316606",
        "owner": "189401676@N02",
        "secret": "a57f880805",
        "server": "65535",
        "farm": 66,
        "title": "flare3 (2)",
        "ispublic": 1,
        "isfriend": 0,
        "isfamily": 0
      },
      {
        "id": "50139771933",
        "owner": "14077792@N07",
        "secret": "fded82cfb7",
        "server": "65535",
        "farm": 66,
        "title": "EI-REM",
        "ispublic": 1,
        "isfriend": 0,
        "isfamily": 0
      },
      {
        "id": "50140549982",
        "owner": "14077792@N07",
        "secret": "2dd38557db",
        "server": "65535",
        "farm": 66,
        "title": "EI-REM",
        "ispublic": 1,
        "isfriend": 0,
        "isfamily": 0
      },
      {
        "id": "50140537852",
        "owner": "189396661@N05",
        "secret": "04defa97ee",
        "server": "65535",
        "farm": 66,
        "title": "Park Hill, Sheffield",
        "ispublic": 1,
        "isfriend": 0,
        "isfamily": 0
      },
      {
        "id": "50140537537",
        "owner": "189396661@N05",
        "secret": "1485ef1340",
        "server": "65535",
        "farm": 66,
        "title": "Port Vale",
        "ispublic": 1,
        "isfriend": 0,
        "isfamily": 0
      },
      {
        "id": "50140301126",
        "owner": "189396661@N05",
        "secret": "b4ba9cbd99",
        "server": "65535",
        "farm": 66,
        "title": "Rotherham United",
        "ispublic": 1,
        "isfriend": 0,
        "isfamily": 0
      },
      {
        "id": "50139757273",
        "owner": "189396661@N05",
        "secret": "e7d0ace1f0",
        "server": "65535",
        "farm": 66,
        "title": "Sheffield United Academy",
        "ispublic": 1,
        "isfriend": 0,
        "isfamily": 0
      },
      {
        "id": "50139757163",
        "owner": "189396661@N05",
        "secret": "77c9ee6d22",
        "server": "65535",
        "farm": 66,
        "title": "Sheffield",
        "ispublic": 1,
        "isfriend": 0,
        "isfamily": 0
      },
      {
        "id": "50140535852",
        "owner": "189396661@N05",
        "secret": "d0e47634f1",
        "server": "65535",
        "farm": 66,
        "title": "Skye Edge, Sheffield",
        "ispublic": 1,
        "isfriend": 0,
        "isfamily": 0
      },
      {
        "id": "50139756408",
        "owner": "189396661@N05",
        "secret": "8b08f6439a",
        "server": "65535",
        "farm": 66,
        "title": "Stalybridge Celtic",
        "ispublic": 1,
        "isfriend": 0,
        "isfamily": 0
      },
      {
        "id": "50140535402",
        "owner": "189396661@N05",
        "secret": "ac9b4cf84c",
        "server": "65535",
        "farm": 66,
        "title": "Staveley Miners Welfare",
        "ispublic": 1,
        "isfriend": 0,
        "isfamily": 0
      },
      {
        "id": "50139755983",
        "owner": "189396661@N05",
        "secret": "5a90a14bf0",
        "server": "65535",
        "farm": 66,
        "title": "Sunderland",
        "ispublic": 1,
        "isfriend": 0,
        "isfamily": 0
      },
      {
        "id": "50140298276",
        "owner": "189396661@N05",
        "secret": "7a3987e838",
        "server": "65535",
        "farm": 66,
        "title": "The Feethams, Darlington",
        "ispublic": 1,
        "isfriend": 0,
        "isfamily": 0
      },
      {
        "id": "50140534017",
        "owner": "189396661@N05",
        "secret": "fc88195b04",
        "server": "65535",
        "farm": 66,
        "title": "Worksop Town",
        "ispublic": 1,
        "isfriend": 0,
        "isfamily": 0
      },
      {
        "id": "50140297856",
        "owner": "189396661@N05",
        "secret": "5f1c39e52f",
        "server": "65535",
        "farm": 66,
        "title": "York City",
        "ispublic": 1,
        "isfriend": 0,
        "isfamily": 0
      },
      {
        "id": "50140550867",
        "owner": "189396661@N05",
        "secret": "85d45d8ee1",
        "server": "65535",
        "farm": 66,
        "title": "Barnsley",
        "ispublic": 1,
        "isfriend": 0,
        "isfamily": 0
      },
      {
        "id": "50140550392",
        "owner": "189396661@N05",
        "secret": "9e9ac23d98",
        "server": "65535",
        "farm": 66,
        "title": "Bedlington Terriers",
        "ispublic": 1,
        "isfriend": 0,
        "isfamily": 0
      },
      {
        "id": "50139771738",
        "owner": "189396661@N05",
        "secret": "b960733c9a",
        "server": "65535",
        "farm": 66,
        "title": "Billingham Synthonia",
        "ispublic": 1,
        "isfriend": 0,
        "isfamily": 0
      },
      {
        "id": "50140549812",
        "owner": "189396661@N05",
        "secret": "ce40ba338c",
        "server": "65535",
        "farm": 66,
        "title": "Billingham Town",
        "ispublic": 1,
        "isfriend": 0,
        "isfamily": 0
      },
      {
        "id": "50140313481",
        "owner": "189396661@N05",
        "secret": "959defaf79",
        "server": "65535",
        "farm": 66,
        "title": "Bradford (Park Avenue)",
        "ispublic": 1,
        "isfriend": 0,
        "isfamily": 0
      },
      {
        "id": "50140549147",
        "owner": "189396661@N05",
        "secret": "5f2c4760ca",
        "server": "65535",
        "farm": 66,
        "title": "Bradford City",
        "ispublic": 1,
        "isfriend": 0,
        "isfamily": 0
      },
      {
        "id": "50140547977",
        "owner": "189396661@N05",
        "secret": "3a81c3db4c",
        "server": "65535",
        "farm": 66,
        "title": "Buxton",
        "ispublic": 1,
        "isfriend": 0,
        "isfamily": 0
      },
      {
        "id": "50140547772",
        "owner": "186211059@N06",
        "secret": "ecc81a2efc",
        "server": "65535",
        "farm": 66,
        "title": "Clouded-bordered Brindle",
        "ispublic": 1,
        "isfriend": 0,
        "isfamily": 0
      },
      {
        "id": "50140547577",
        "owner": "189396661@N05",
        "secret": "9eb0925a68",
        "server": "65535",
        "farm": 66,
        "title": "Castle Dyke, Sheffield",
        "ispublic": 1,
        "isfriend": 0,
        "isfamily": 0
      },
      {
        "id": "50139769038",
        "owner": "189396661@N05",
        "secret": "c592bdf8d5",
        "server": "65535",
        "farm": 66,
        "title": "Charlton Athletic",
        "ispublic": 1,
        "isfriend": 0,
        "isfamily": 0
      },
      {
        "id": "50140311611",
        "owner": "189396661@N05",
        "secret": "96a7985858",
        "server": "65535",
        "farm": 66,
        "title": "Chatham Town",
        "ispublic": 1,
        "isfriend": 0,
        "isfamily": 0
      },
      {
        "id": "50140310896",
        "owner": "189396661@N05",
        "secret": "f6166d745c",
        "server": "65535",
        "farm": 66,
        "title": "Claremont Road, Hendon",
        "ispublic": 1,
        "isfriend": 0,
        "isfamily": 0
      },
      {
        "id": "50140308171",
        "owner": "189396661@N05",
        "secret": "7efd67873c",
        "server": "65535",
        "farm": 66,
        "title": "Enfield Town",
        "ispublic": 1,
        "isfriend": 0,
        "isfamily": 0
      },
      {
        "id": "50139765063",
        "owner": "186211059@N06",
        "secret": "8760e44cd9",
        "server": "65535",
        "farm": 66,
        "title": "Black Kite",
        "ispublic": 1,
        "isfriend": 0,
        "isfamily": 0
      },
      {
        "id": "50140542857",
        "owner": "189396661@N05",
        "secret": "9be43917c0",
        "server": "65535",
        "farm": 66,
        "title": "Frickley Athletic",
        "ispublic": 1,
        "isfriend": 0,
        "isfamily": 0
      },
      {
        "id": "50140542737",
        "owner": "189396661@N05",
        "secret": "bb84ac4dc9",
        "server": "65535",
        "farm": 66,
        "title": "Gainsborough Trinity",
        "ispublic": 1,
        "isfriend": 0,
        "isfamily": 0
      },
      {
        "id": "50139763908",
        "owner": "40744368@N04",
        "secret": "86b1a01a4e",
        "server": "65535",
        "farm": 66,
        "title": "DSC_9208",
        "ispublic": 1,
        "isfriend": 0,
        "isfamily": 0
      },
      {
        "id": "50139763888",
        "owner": "40744368@N04",
        "secret": "5b12eaa15b",
        "server": "65535",
        "farm": 66,
        "title": "DSC_9232",
        "ispublic": 1,
        "isfriend": 0,
        "isfamily": 0
      },
      {
        "id": "50139763838",
        "owner": "40744368@N04",
        "secret": "d86f81b0e1",
        "server": "65535",
        "farm": 66,
        "title": "DSC_9234",
        "ispublic": 1,
        "isfriend": 0,
        "isfamily": 0
      },
      {
        "id": "50140306836",
        "owner": "189396661@N05",
        "secret": "6467967499",
        "server": "65535",
        "farm": 66,
        "title": "Goole",
        "ispublic": 1,
        "isfriend": 0,
        "isfamily": 0
      },
      {
        "id": "50139763708",
        "owner": "189396661@N05",
        "secret": "3fc3743ed9",
        "server": "65535",
        "farm": 66,
        "title": "Guiseley",
        "ispublic": 1,
        "isfriend": 0,
        "isfamily": 0
      },
      {
        "id": "50140306546",
        "owner": "189396661@N05",
        "secret": "9773035dfb",
        "server": "65535",
        "farm": 66,
        "title": "Hallam",
        "ispublic": 1,
        "isfriend": 0,
        "isfamily": 0
      },
      {
        "id": "50139763353",
        "owner": "189396661@N05",
        "secret": "018bab1593",
        "server": "65535",
        "farm": 66,
        "title": "Harrogate Town",
        "ispublic": 1,
        "isfriend": 0,
        "isfamily": 0
      },
      {
        "id": "50139761343",
        "owner": "189396661@N05",
        "secret": "495f0945e0",
        "server": "65535",
        "farm": 66,
        "title": "Leek Town",
        "ispublic": 1,
        "isfriend": 0,
        "isfamily": 0
      },
      {
        "id": "50139760548",
        "owner": "13434375@N07",
        "secret": "6cdc663612",
        "server": "65535",
        "farm": 66,
        "title": "Olympic Cauldron",
        "ispublic": 1,
        "isfriend": 0,
        "isfamily": 0
      },
      {
        "id": "50139759013",
        "owner": "186211059@N06",
        "secret": "0841961bf7",
        "server": "65535",
        "farm": 66,
        "title": "Black Kite",
        "ispublic": 1,
        "isfriend": 0,
        "isfamily": 0
      },
      {
        "id": "50139756208",
        "owner": "186211059@N06",
        "secret": "111ec22992",
        "server": "65535",
        "farm": 66,
        "title": "Brindled Ochre",
        "ispublic": 1,
        "isfriend": 0,
        "isfamily": 0
      },
      {
        "id": "50139755303",
        "owner": "63470249@N06",
        "secret": "a086ab2a5c",
        "server": "65535",
        "farm": 66,
        "title": "Baltimore  149115",
        "ispublic": 1,
        "isfriend": 0,
        "isfamily": 0
      },
      {
        "id": "50140534042",
        "owner": "63470249@N06",
        "secret": "41d8778cb3",
        "server": "65535",
        "farm": 66,
        "title": "Baltimore  149117",
        "ispublic": 1,
        "isfriend": 0,
        "isfamily": 0
      },
      {
        "id": "50139754633",
        "owner": "63470249@N06",
        "secret": "87b63919ab",
        "server": "65535",
        "farm": 66,
        "title": "Baltimore  149118",
        "ispublic": 1,
        "isfriend": 0,
        "isfamily": 0
      },
      {
        "id": "50140533267",
        "owner": "63470249@N06",
        "secret": "13b387f0db",
        "server": "65535",
        "farm": 66,
        "title": "Baltimore  149122",
        "ispublic": 1,
        "isfriend": 0,
        "isfamily": 0
      },
      {
        "id": "50140296591",
        "owner": "63470249@N06",
        "secret": "85ffb21a76",
        "server": "65535",
        "farm": 66,
        "title": "Baltimore  149125 - Version 2",
        "ispublic": 1,
        "isfriend": 0,
        "isfamily": 0
      },
      {
        "id": "50139753408",
        "owner": "63470249@N06",
        "secret": "ca7fa51b15",
        "server": "65535",
        "farm": 66,
        "title": "Baltimore  149127",
        "ispublic": 1,
        "isfriend": 0,
        "isfamily": 0
      },
      {
        "id": "50139753153",
        "owner": "63470249@N06",
        "secret": "fc916ce5b7",
        "server": "65535",
        "farm": 66,
        "title": "Baltimore  149128",
        "ispublic": 1,
        "isfriend": 0,
        "isfamily": 0
      },
      {
        "id": "50140532047",
        "owner": "63470249@N06",
        "secret": "98ff442cba",
        "server": "65535",
        "farm": 66,
        "title": "Baltimore  149130",
        "ispublic": 1,
        "isfriend": 0,
        "isfamily": 0
      },
      {
        "id": "50140531187",
        "owner": "63470249@N06",
        "secret": "7142d6f94d",
        "server": "65535",
        "farm": 66,
        "title": "Baltimore  149131 - Version 2",
        "ispublic": 1,
        "isfriend": 0,
        "isfamily": 0
      },
      {
        "id": "50140292091",
        "owner": "186666454@N02",
        "secret": "93466328fa",
        "server": "65535",
        "farm": 66,
        "title": "DSCF4135",
        "ispublic": 1,
        "isfriend": 0,
        "isfamily": 0
      },
      {
        "id": "50140528322",
        "owner": "186666454@N02",
        "secret": "4dc5597d68",
        "server": "65535",
        "farm": 66,
        "title": "DSCF4136",
        "ispublic": 1,
        "isfriend": 0,
        "isfamily": 0
      },
      {
        "id": "50140528277",
        "owner": "186666454@N02",
        "secret": "3294a991f9",
        "server": "65535",
        "farm": 66,
        "title": "DSCF4137",
        "ispublic": 1,
        "isfriend": 0,
        "isfamily": 0
      },
      {
        "id": "50140528202",
        "owner": "186666454@N02",
        "secret": "c6c80d353f",
        "server": "65535",
        "farm": 66,
        "title": "DSCF4140",
        "ispublic": 1,
        "isfriend": 0,
        "isfamily": 0
      },
      {
        "id": "50140291871",
        "owner": "186666454@N02",
        "secret": "5b4e0d771a",
        "server": "65535",
        "farm": 66,
        "title": "DSCF4142",
        "ispublic": 1,
        "isfriend": 0,
        "isfamily": 0
      },
      {
        "id": "50140528062",
        "owner": "186666454@N02",
        "secret": "00892fd113",
        "server": "65535",
        "farm": 66,
        "title": "DSCF4144",
        "ispublic": 1,
        "isfriend": 0,
        "isfamily": 0
      },
      {
        "id": "50139748948",
        "owner": "186666454@N02",
        "secret": "da724e61e6",
        "server": "65535",
        "farm": 66,
        "title": "DSCF4145",
        "ispublic": 1,
        "isfriend": 0,
        "isfamily": 0
      },
      {
        "id": "50140291726",
        "owner": "186666454@N02",
        "secret": "b79d221971",
        "server": "65535",
        "farm": 66,
        "title": "DSCF4126",
        "ispublic": 1,
        "isfriend": 0,
        "isfamily": 0
      },
      {
        "id": "50139748863",
        "owner": "186666454@N02",
        "secret": "e5e439ac18",
        "server": "65535",
        "farm": 66,
        "title": "DSCF4127",
        "ispublic": 1,
        "isfriend": 0,
        "isfamily": 0
      },
      {
        "id": "50140291646",
        "owner": "186666454@N02",
        "secret": "6fa3c8b663",
        "server": "65535",
        "farm": 66,
        "title": "DSCF4130",
        "ispublic": 1,
        "isfriend": 0,
        "isfamily": 0
      },
      {
        "id": "50140527777",
        "owner": "186666454@N02",
        "secret": "c26468902a",
        "server": "65535",
        "farm": 66,
        "title": "1st day in the family home",
        "ispublic": 1,
        "isfriend": 0,
        "isfamily": 0
      },
      {
        "id": "50140527752",
        "owner": "186666454@N02",
        "secret": "88036272ee",
        "server": "65535",
        "farm": 66,
        "title": "DSCF4146",
        "ispublic": 1,
        "isfriend": 0,
        "isfamily": 0
      },
      {
        "id": "50140291521",
        "owner": "186666454@N02",
        "secret": "a380722fe6",
        "server": "65535",
        "farm": 66,
        "title": "DSCF4147",
        "ispublic": 1,
        "isfriend": 0,
        "isfamily": 0
      },
      {
        "id": "50139746883",
        "owner": "63470249@N06",
        "secret": "3871889450",
        "server": "65535",
        "farm": 66,
        "title": "Baltimore  149136",
        "ispublic": 1,
        "isfriend": 0,
        "isfamily": 0
      },
      {
        "id": "50140287621",
        "owner": "63470249@N06",
        "secret": "08b5f62703",
        "server": "65535",
        "farm": 66,
        "title": "Baltimore  149137",
        "ispublic": 1,
        "isfriend": 0,
        "isfamily": 0
      },
      {
        "id": "50139742798",
        "owner": "63470249@N06",
        "secret": "e38bff251c",
        "server": "65535",
        "farm": 66,
        "title": "Baltimore  149139 - Version 2",
        "ispublic": 1,
        "isfriend": 0,
        "isfamily": 0
      },
      {
        "id": "50139746693",
        "owner": "40744368@N04",
        "secret": "339d09409f",
        "server": "65535",
        "farm": 66,
        "title": "DSC_9207",
        "ispublic": 1,
        "isfriend": 0,
        "isfamily": 0
      },
      {
        "id": "50140280751",
        "owner": "42964440@N08",
        "secret": "5bc188df92",
        "server": "65535",
        "farm": 66,
        "title": "Capybara Youngster (Hydrochoerus hydrochaeris)",
        "ispublic": 1,
        "isfriend": 0,
        "isfamily": 0
      },
      {
        "id": "50140272331",
        "owner": "189376421@N03",
        "secret": "fe86e5a2af",
        "server": "65535",
        "farm": 66,
        "title": "Melbourne Zoo 76",
        "ispublic": 1,
        "isfriend": 0,
        "isfamily": 0
      },
      {
        "id": "50140507342",
        "owner": "189376421@N03",
        "secret": "1256de05d4",
        "server": "65535",
        "farm": 66,
        "title": "Melbourne Zoo 77",
        "ispublic": 1,
        "isfriend": 0,
        "isfamily": 0
      },
      {
        "id": "50140269296",
        "owner": "189376421@N03",
        "secret": "0cf903b1eb",
        "server": "65535",
        "farm": 66,
        "title": "Melbourne Zoo 78",
        "ispublic": 1,
        "isfriend": 0,
        "isfamily": 0
      },
      {
        "id": "50139746793",
        "owner": "40744368@N04",
        "secret": "da709c4613",
        "server": "65535",
        "farm": 66,
        "title": "DSC_9201",
        "ispublic": 1,
        "isfriend": 0,
        "isfamily": 0
      }
    ]
  },
  "stat": "ok"
}